participant_id	age	left-handed	Do you like this session?	session	stim_file	response	response_time	trial_type	trial
29	33	True	No	post	../../stimuli/shapes/target_plus.jpg	1	0.3927282678124983	practice	shapes
29	33	True	No	post	../../stimuli/shapes/target_plus.jpg	1	0.7705978567592064	practice	shapes
29	33	True	No	post	../../stimuli/shapes/target_square.jpg	0	0.6560843585105631	practice	shapes
29	33	True	No	post	../../stimuli/shapes/target_cross.jpg	0	0.8047859292803363	practice	shapes
29	33	True	No	post	../../stimuli/shapes/target_plus.jpg	1	0.5468837841188142	practice	shapes
29	33	True	No	post	../../stimuli/shapes/target_square.jpg	1	0.5279915481043915	practice	shapes
29	33	True	No	post	../../stimuli/shapes/target_square.jpg	1	0.9141851417766028	experiment	shapes
29	33	True	No	post	../../stimuli/shapes/target_plus.jpg	1	0.3281969147137862	experiment	shapes
29	33	True	No	post	../../stimuli/shapes/target_cross.jpg	1	0.8633829721075303	experiment	shapes
29	33	True	No	post	../../stimuli/shapes/target_plus.jpg	1	0.5582913288604295	experiment	shapes
29	33	True	No	post	../../stimuli/shapes/target_square.jpg	1	0.8982333180519344	experiment	shapes
29	33	True	No	post	../../stimuli/shapes/target_plus.jpg	1	0.8615421061850994	experiment	shapes
29	33	True	No	post	../../stimuli/shapes/target_cross.jpg	1	0.5441328731772619	experiment	shapes
29	33	True	No	post	../../stimuli/shapes/target_square.jpg	1	0.7857135747251311	experiment	shapes
29	33	True	No	post	../../stimuli/shapes/target_cross.jpg	1	0.4117429297414081	experiment	shapes
29	33	True	No	post	../../stimuli/shapes/target_plus.jpg	0	0.9273970865146516	experiment	shapes
29	33	True	No	post	../../stimuli/shapes/target_plus.jpg	1	0.5831437451163366	experiment	shapes
29	33	True	No	post	../../stimuli/shapes/target_cross.jpg	0	0.6189379307486401	experiment	shapes
29	33	True	No	post	../../stimuli/shapes/target_platypus.jpg	1	0.7830180767584582	practice	images
29	33	True	No	post	../../stimuli/shapes/target_wombat.jpg	1	0.571028291909154	practice	images
29	33	True	No	post	../../stimuli/shapes/target_platypus.jpg	1	0.5422759501150853	practice	images
29	33	True	No	post	../../stimuli/shapes/target_wombat.jpg	1	0.8851218856883696	practice	images
29	33	True	No	post	../../stimuli/shapes/target_wombat.jpg	1	0.3708932866817044	practice	images
29	33	True	No	post	../../stimuli/images/target_capybara.jpg	1	0.7731248359811475	practice	images
29	33	True	No	post	../../stimuli/images/target_capybara.jpg	1	0.3108487692783332	experiment	images
29	33	True	No	post	../../stimuli/shapes/target_wombat.jpg	1	0.4167349882108844	experiment	images
29	33	True	No	post	../../stimuli/shapes/target_platypus.jpg	0	0.7246630708431074	experiment	images
29	33	True	No	post	../../stimuli/shapes/target_platypus.jpg	1	0.7963890340401562	experiment	images
29	33	True	No	post	../../stimuli/shapes/target_platypus.jpg	1	0.314740448489424	experiment	images
29	33	True	No	post	../../stimuli/shapes/target_wombat.jpg	1	0.3254978103112041	experiment	images
29	33	True	No	post	../../stimuli/shapes/target_wombat.jpg	1	0.9317794803900672	experiment	images
29	33	True	No	post	../../stimuli/shapes/target_wombat.jpg	1	0.3513140726796038	experiment	images
29	33	True	No	post	../../stimuli/shapes/target_wombat.jpg	1	0.9259275110316	experiment	images
29	33	True	No	post	../../stimuli/images/target_capybara.jpg	1	0.459716139625634	experiment	images
29	33	True	No	post	../../stimuli/shapes/target_wombat.jpg	1	0.818012460110749	experiment	images
29	33	True	No	post	../../stimuli/shapes/target_platypus.jpg	1	0.5168132742622085	experiment	images
