participant_id	age	left-handed	Do you like this session?	session	stim_file	response	response_time	trial_type	trial
4	28	False	Yes	post	../../stimuli/shapes/target_cross.jpg	1	0.9890815264924864	practice	shapes
4	28	False	Yes	post	../../stimuli/shapes/target_square.jpg	1	0.6679831276118801	practice	shapes
4	28	False	Yes	post	../../stimuli/shapes/target_plus.jpg	0	0.4201755000938124	practice	shapes
4	28	False	Yes	post	../../stimuli/shapes/target_square.jpg	0	0.4906151285635582	practice	shapes
4	28	False	Yes	post	../../stimuli/shapes/target_plus.jpg	1	0.3128734735832267	practice	shapes
4	28	False	Yes	post	../../stimuli/shapes/target_cross.jpg	1	0.9400091645923492	practice	shapes
4	28	False	Yes	post	../../stimuli/shapes/target_plus.jpg	1	0.7035615328599775	experiment	shapes
4	28	False	Yes	post	../../stimuli/shapes/target_cross.jpg	1	0.4918386544810442	experiment	shapes
4	28	False	Yes	post	../../stimuli/shapes/target_plus.jpg	1	0.6879246017610554	experiment	shapes
4	28	False	Yes	post	../../stimuli/shapes/target_plus.jpg	1	0.7559942718463049	experiment	shapes
4	28	False	Yes	post	../../stimuli/shapes/target_plus.jpg	1	0.8808192625950411	experiment	shapes
4	28	False	Yes	post	../../stimuli/shapes/target_square.jpg	1	0.4444948902324222	experiment	shapes
4	28	False	Yes	post	../../stimuli/shapes/target_square.jpg	1	0.3076970800609363	experiment	shapes
4	28	False	Yes	post	../../stimuli/shapes/target_cross.jpg	1	0.3958199410481651	experiment	shapes
4	28	False	Yes	post	../../stimuli/shapes/target_cross.jpg	0	0.9300130492936736	experiment	shapes
4	28	False	Yes	post	../../stimuli/shapes/target_square.jpg	1	0.9117230542937608	experiment	shapes
4	28	False	Yes	post	../../stimuli/shapes/target_cross.jpg	0	0.7181891715192158	experiment	shapes
4	28	False	Yes	post	../../stimuli/shapes/target_square.jpg	1	0.7203618023035574	experiment	shapes
4	28	False	Yes	post	../../stimuli/shapes/target_platypus.jpg	1	0.3328761767425385	practice	images
4	28	False	Yes	post	../../stimuli/shapes/target_wombat.jpg	1	0.4163983581292556	practice	images
4	28	False	Yes	post	../../stimuli/shapes/target_wombat.jpg	1	0.8166235314984593	practice	images
4	28	False	Yes	post	../../stimuli/images/target_capybara.jpg	1	0.3579590675475885	practice	images
4	28	False	Yes	post	../../stimuli/shapes/target_wombat.jpg	1	0.7222064766264717	practice	images
4	28	False	Yes	post	../../stimuli/shapes/target_wombat.jpg	1	0.4717443767769246	practice	images
4	28	False	Yes	post	../../stimuli/shapes/target_platypus.jpg	1	0.50208561573949	experiment	images
4	28	False	Yes	post	../../stimuli/shapes/target_wombat.jpg	0	0.5489709015254643	experiment	images
4	28	False	Yes	post	../../stimuli/shapes/target_platypus.jpg	1	0.8033321336289718	experiment	images
4	28	False	Yes	post	../../stimuli/images/target_capybara.jpg	1	0.5079852009362225	experiment	images
4	28	False	Yes	post	../../stimuli/shapes/target_wombat.jpg	1	0.696483248207828	experiment	images
4	28	False	Yes	post	../../stimuli/shapes/target_platypus.jpg	1	0.6332352815393698	experiment	images
4	28	False	Yes	post	../../stimuli/images/target_capybara.jpg	1	0.7645698157538536	experiment	images
4	28	False	Yes	post	../../stimuli/shapes/target_wombat.jpg	0	0.9557808175273306	experiment	images
4	28	False	Yes	post	../../stimuli/images/target_capybara.jpg	1	0.8128004680471752	experiment	images
4	28	False	Yes	post	../../stimuli/shapes/target_wombat.jpg	1	0.4504582650135297	experiment	images
4	28	False	Yes	post	../../stimuli/images/target_capybara.jpg	1	0.3218281945428992	experiment	images
4	28	False	Yes	post	../../stimuli/images/target_capybara.jpg	1	0.4835848310098775	experiment	images
