participant_id,age,left-handed,Do you like this session?,session,TargetImage,trialRespTimes,keyboard_response.corr,PracticeLoop.thisRepN,PracticeLoop.thisTrialN,PracticeLoop.thisN,PracticeLoop.thisIndex,exp_loop.thisRepN,exp_loop.thisTrialN,exp_loop.thisN,exp_loop.thisIndex,thisRow.t,notes,welcome.started,welcome_message.started,spacebar_welcome.started,welcome.stopped,spacebar_welcome.keys,spacebar_welcome.rt,spacebar_welcome.duration,instructions_general.started,general_instructions.started,general_instructions_space_bar.started,instructions_general.stopped,general_instructions_space_bar.keys,general_instructions_space_bar.rt,general_instructions_space_bar.duration,instructions_shape.started,instruct_shape.started,instruct_space_bar.started,instruct_shape_square.started,instruct_shape_plus.started,instruct_shape_cross.started,instructions_shape.stopped,instruct_space_bar.keys,instruct_space_bar.rt,instruct_space_bar.duration,trial.started,visual_reminder_square.started,visual_reminder_plus.started,visual_reminder_cross.started,left_far_tile.started,left_mid_tile.started,right_mid_tile.started,right_far_tile.started,target_image.started,target_image.stopped,trial.stopped,keyboard_response.keys,keyboard_response.rt,keyboard_response.duration,practice_feedback.started,feedback_text.started,keyboard_response_feedback.started,practice_feedback.stopped,keyboard_response_feedback.keys,keyboard_response_feedback.rt,keyboard_response_feedback.duration,instructions_shape_experiment.started,instruct_shape_experiment.started,instruct_space_bar_2.started,instructions_shape_experiment.stopped,instruct_space_bar_2.keys,instruct_space_bar_2.rt,instruct_space_bar_2.duration,end_screen.started,end_screen_instructions.started,end_screen_space_bar.started,end_screen.stopped,end_screen_space_bar.keys,end_screen_space_bar.rt,end_screen_space_bar.duration,participant,output-path,date,expName,psychopyVersion,frameRate,expStart
15,20,False,Yes,post,,0.45309686022650825,1,,,,,,,,,,,0.016020599,0.03271921299,0.03271921299,1.503965789,space,1.399389165,,,,,,,,,,,,,,,,,,,,,,,,,,,,,,,,,,,,,,,,,,,,,,,,,,,,,,1.0,/Users/peerherholz/Desktop/choice_rtt/sourcedata,2024-02-02_09h43.24.388,crtt_exp,2023.2.3,,2024-02-02 09h45.50.589747 +0100
15,20,False,Yes,post,,0.4279864459081719,1,,,,,,,,,,,,,,,,,,1.503993118,1.573398959,1.573398959,2.358931209,space,0.77768614,,,,,,,,,,,,,,,,,,,,,,,,,,,,,,,,,,,,,,,,,,,,,,,1.0,/Users/peerherholz/Desktop/choice_rtt/sourcedata,2024-02-02_09h43.24.388,crtt_exp,2023.2.3,,2024-02-02 09h45.50.589747 +0100
15,20,False,Yes,post,,0.8779976660924669,0,,,,,,,,,,,,,,,,,,,,,,,,,2.358954073,2.387525391,2.387525391,2.387525391,2.387525391,2.387525391,6.300208074,space,3.893270394,,,,,,,,,,,,,,,,,,,,,,,,,,,,,,,,,,,,,1.0,/Users/peerherholz/Desktop/choice_rtt/sourcedata,2024-02-02_09h43.24.388,crtt_exp,2023.2.3,,2024-02-02 09h45.50.589747 +0100
15,20,False,Yes,post,../../stimuli/shapes/target_square.jpg,0.4999952973626232,1,0.0,0.0,0.0,5.0,,,,,6.436777831,,,,,,,,,,,,,,,,,,,,,,,,,,6.312988718,6.436777831,6.436777831,6.436777831,6.81336472,6.81336472,6.81336472,6.81336472,7.90518939,8.120698615,8.903930404,v,2.476969487,,8.905803863,8.933227774,8.933227774,11.87322,space,2.928320545,,,,,,,,,,,,,,,,1.0,/Users/peerherholz/Desktop/choice_rtt/sourcedata,2024-02-02_09h43.24.388,crtt_exp,2023.2.3,,2024-02-02 09h45.50.589747 +0100
15,20,False,Yes,post,../../stimuli/shapes/target_plus.jpg,0.9489866473051145,1,0.0,1.0,1.0,1.0,,,,,11.96043231,,,,,,,,,,,,,,,,,,,,,,,,,,11.87395641,11.96043231,11.96043231,11.96043231,12.37038246,12.37038246,12.37038246,12.37038246,13.4819127,13.85452394,14.3454594,c,2.390713969,,14.34587198,14.3647866,14.3647866,15.01937966,space,0.64706643,,,,,,,,,,,,,,,,1.0,/Users/peerherholz/Desktop/choice_rtt/sourcedata,2024-02-02_09h43.24.388,crtt_exp,2023.2.3,,2024-02-02 09h45.50.589747 +0100
15,20,False,Yes,post,../../stimuli/shapes/target_cross.jpg,0.9789485677416336,1,0.0,2.0,2.0,0.0,,,,,15.10624386,,,,,,,,,,,,,,,,,,,,,,,,,,15.01983065,15.10624386,15.10624386,15.10624386,15.52641633,15.52641633,15.52641633,15.52641633,16.02470174,16.22503358,16.6136009,b,1.51922085,,16.61445265,16.63569105,16.63569105,17.17920204,space,0.536596066,,,,,,,,,,,,,,,,1.0,/Users/peerherholz/Desktop/choice_rtt/sourcedata,2024-02-02_09h43.24.388,crtt_exp,2023.2.3,,2024-02-02 09h45.50.589747 +0100
15,20,False,Yes,post,../../stimuli/shapes/target_plus.jpg,0.6998823289559681,1,0.0,3.0,3.0,4.0,,,,,17.25991832,,,,,,,,,,,,,,,,,,,,,,,,,,17.17989569,17.25991832,17.25991832,17.25991832,17.68259122,17.68259122,17.68259122,17.68259122,18.39161837,18.59212477,18.90670263,b,1.658665087,,18.90722807,18.92708039,18.92708039,19.43349586,space,0.494522866,,,,,,,,,,,,,,,,1.0,/Users/peerherholz/Desktop/choice_rtt/sourcedata,2024-02-02_09h43.24.388,crtt_exp,2023.2.3,,2024-02-02 09h45.50.589747 +0100
15,20,False,Yes,post,../../stimuli/shapes/target_plus.jpg,0.40010078586600845,1,0.0,4.0,4.0,2.0,,,,,19.52874452,,,,,,,,,,,,,,,,,,,,,,,,,,19.43441002,19.52874452,19.52874452,19.52874452,19.95051536,19.95051536,19.95051536,19.95051536,21.24531892,21.4501093,21.70213788,c,2.179642226,,21.70255837,21.72277987,21.72277987,22.62900685,space,0.904877959,,,,,,,,,,,,,,,,1.0,/Users/peerherholz/Desktop/choice_rtt/sourcedata,2024-02-02_09h43.24.388,crtt_exp,2023.2.3,,2024-02-02 09h45.50.589747 +0100
15,20,False,Yes,post,../../stimuli/shapes/target_square.jpg,0.5621837703657069,1,0.0,5.0,5.0,3.0,,,,,22.71654477,,,,,,,,,,,,,,,,,,,,,,,,,,22.62956251,22.71654477,22.71654477,22.71654477,23.14035188,23.14035188,23.14035188,23.14035188,24.04254788,24.25505868,24.67228378,c,1.966883874,,24.6729524,24.69517958,24.69517958,25.07985916,space,0.373349936,,,,,,,,,,,,,,,,1.0,/Users/peerherholz/Desktop/choice_rtt/sourcedata,2024-02-02_09h43.24.388,crtt_exp,2023.2.3,,2024-02-02 09h45.50.589747 +0100
15,20,False,Yes,post,,0.8584125843437498,1,,,,,,,,,,,,,,,,,,,,,,,,,,,,,,,,,,,,,,,,,,,,,,,,,,,,,,,,25.08039455,25.09149526,25.09149526,26.01455832,space,0.904574335,,,,,,,,,1.0,/Users/peerherholz/Desktop/choice_rtt/sourcedata,2024-02-02_09h43.24.388,crtt_exp,2023.2.3,,2024-02-02 09h45.50.589747 +0100
15,20,False,Yes,post,../../stimuli/shapes/target_plus.jpg,0.5571735100879494,0,,,,,0.0,0.0,0.0,1.0,26.10554558,,,,,,,,,,,,,,,,,,,,,,,,,,26.01918518,26.10554558,26.10554558,26.10554558,26.51396619,26.51396619,26.51396619,26.51396619,27.21471272,27.42266557,28.13322668,c,2.040336659,,,,,,,,,,,,,,,,,,,,,,,1.0,/Users/peerherholz/Desktop/choice_rtt/sourcedata,2024-02-02_09h43.24.388,crtt_exp,2023.2.3,,2024-02-02 09h45.50.589747 +0100
15,20,False,Yes,post,../../stimuli/shapes/target_cross.jpg,0.3609120528119521,0,,,,,0.0,1.0,1.0,3.0,28.21859152,,,,,,,,,,,,,,,,,,,,,,,,,,28.13420262,28.21859152,28.21859152,28.21859152,28.62962114,28.62962114,28.62962114,28.62962114,29.94328884,30.15553225,30.71124888,c,2.492934936,,,,,,,,,,,,,,,,,,,,,,,1.0,/Users/peerherholz/Desktop/choice_rtt/sourcedata,2024-02-02_09h43.24.388,crtt_exp,2023.2.3,,2024-02-02 09h45.50.589747 +0100
15,20,False,Yes,post,../../stimuli/shapes/target_plus.jpg,0.6897494376497315,1,,,,,0.0,2.0,2.0,0.0,30.79712242,,,,,,,,,,,,,,,,,,,,,,,,,,30.71187947,30.79712242,30.79712242,30.79712242,31.20943247,31.20943247,31.20943247,31.20943247,32.11837612,32.321689,32.87894486,b,2.094720308,,,,,,,,,,,,,,,,,,,,,,,1.0,/Users/peerherholz/Desktop/choice_rtt/sourcedata,2024-02-02_09h43.24.388,crtt_exp,2023.2.3,,2024-02-02 09h45.50.589747 +0100
15,20,False,Yes,post,../../stimuli/shapes/target_plus.jpg,0.8915845960472244,1,,,,,0.0,3.0,3.0,4.0,32.96083199,,,,,,,,,,,,,,,,,,,,,,,,,,32.87955423,32.96083199,32.96083199,32.96083199,33.38303011,33.38303011,33.38303011,33.38303011,34.28775555,34.4914489,34.79479665,b,1.84399356,,,,,,,,,,,,,,,,,,,,,,,1.0,/Users/peerherholz/Desktop/choice_rtt/sourcedata,2024-02-02_09h43.24.388,crtt_exp,2023.2.3,,2024-02-02 09h45.50.589747 +0100
15,20,False,Yes,post,../../stimuli/shapes/target_plus.jpg,0.8571484710004516,1,,,,,0.0,4.0,4.0,5.0,34.87649157,,,,,,,,,,,,,,,,,,,,,,,,,,34.79529357,34.87649157,34.87649157,34.87649157,35.30964056,35.30964056,35.30964056,35.30964056,35.80050229,36.01533828,36.52543982,v,1.661507702,,,,,,,,,,,,,,,,,,,,,,,1.0,/Users/peerherholz/Desktop/choice_rtt/sourcedata,2024-02-02_09h43.24.388,crtt_exp,2023.2.3,,2024-02-02 09h45.50.589747 +0100
15,20,False,Yes,post,../../stimuli/shapes/target_square.jpg,0.42258619809124726,1,,,,,0.0,5.0,5.0,2.0,36.61186031,,,,,,,,,,,,,,,,,,,,,,,,,,36.52623339,36.61186031,36.61186031,36.61186031,37.02507089,37.02507089,37.02507089,37.02507089,38.35276883,38.57283254,39.30436838,c,2.691443036,,,,,,,,,,,,,,,,,,,,,,,1.0,/Users/peerherholz/Desktop/choice_rtt/sourcedata,2024-02-02_09h43.24.388,crtt_exp,2023.2.3,,2024-02-02 09h45.50.589747 +0100
15,20,False,Yes,post,../../stimuli/shapes/target_cross.jpg,0.7709352300887267,0,,,,,1.0,0.0,6.0,0.0,39.39597147,,,,,,,,,,,,,,,,,,,,,,,,,,39.3049958,39.39597147,39.39597147,39.39597147,39.80680526,39.80680526,39.80680526,39.80680526,40.91691674,41.12129011,41.46421733,b,2.069672766,,,,,,,,,,,,,,,,,,,,,,,1.0,/Users/peerherholz/Desktop/choice_rtt/sourcedata,2024-02-02_09h43.24.388,crtt_exp,2023.2.3,,2024-02-02 09h45.50.589747 +0100
15,20,False,Yes,post,../../stimuli/shapes/target_square.jpg,0.454352984404953,1,,,,,1.0,1.0,7.0,1.0,41.55637444,,,,,,,,,,,,,,,,,,,,,,,,,,41.46541484,41.55637444,41.55637444,41.55637444,41.98308886,41.98308886,41.98308886,41.98308886,42.66596807,42.88332552,43.68130698,c,2.136200199,,,,,,,,,,,,,,,,,,,,,,,1.0,/Users/peerherholz/Desktop/choice_rtt/sourcedata,2024-02-02_09h43.24.388,crtt_exp,2023.2.3,,2024-02-02 09h45.50.589747 +0100
15,20,False,Yes,post,../../stimuli/shapes/target_square.jpg,0.45274527418652055,1,,,,,1.0,2.0,8.0,5.0,43.78558448,,,,,,,,,,,,,,,,,,,,,,,,,,43.68241098,43.78558448,43.78558448,43.78558448,44.19229988,44.19229988,44.19229988,44.19229988,45.31299576,45.52630337,45.76825263,v,1.988529668,,,,,,,,,,,,,,,,,,,,,,,1.0,/Users/peerherholz/Desktop/choice_rtt/sourcedata,2024-02-02_09h43.24.388,crtt_exp,2023.2.3,,2024-02-02 09h45.50.589747 +0100
15,20,False,Yes,post,../../stimuli/shapes/target_square.jpg,0.9118502413136296,0,,,,,1.0,3.0,9.0,3.0,45.8834638,,,,,,,,,,,,,,,,,,,,,,,,,,45.76899758,45.8834638,45.8834638,45.8834638,46.27756298,46.27756298,46.27756298,46.27756298,46.7914134,47.0081428,47.48935094,c,1.618871047,,,,,,,,,,,,,,,,,,,,,,,1.0,/Users/peerherholz/Desktop/choice_rtt/sourcedata,2024-02-02_09h43.24.388,crtt_exp,2023.2.3,,2024-02-02 09h45.50.589747 +0100
15,20,False,Yes,post,../../stimuli/shapes/target_square.jpg,0.4747682669181611,1,,,,,1.0,4.0,10.0,4.0,47.60833845,,,,,,,,,,,,,,,,,,,,,,,,,,47.49031983,47.60833845,47.60833845,47.60833845,47.99334343,47.99334343,47.99334343,47.99334343,49.30072946,49.51473669,49.85255235,b,2.255883558,,,,,,,,,,,,,,,,,,,,,,,1.0,/Users/peerherholz/Desktop/choice_rtt/sourcedata,2024-02-02_09h43.24.388,crtt_exp,2023.2.3,,2024-02-02 09h45.50.589747 +0100
15,20,False,Yes,post,../../stimuli/shapes/target_square.jpg,0.4842731425626078,0,,,,,1.0,5.0,11.0,2.0,49.93376565,,,,,,,,,,,,,,,,,,,,,,,,,,49.85335383,49.93376565,49.93376565,49.93376565,50.36213885,50.36213885,50.36213885,50.36213885,51.46612048,51.67664041,52.04445329,v,2.105885174,,,,,,,,,,,,,,,,,,,,,,,1.0,/Users/peerherholz/Desktop/choice_rtt/sourcedata,2024-02-02_09h43.24.388,crtt_exp,2023.2.3,,2024-02-02 09h45.50.589747 +0100
15,20,False,Yes,post,,0.3004573735329097,1,,,,,,,,,,,,,,,,,,,,,,,,,,,,,,,,,,,,,,,,,,,,,,,,,,,,,,,,,,,,,,,52.0449968,52.0560685,52.0560685,53.51264815,space,1.454449523,,1.0,/Users/peerherholz/Desktop/choice_rtt/sourcedata,2024-02-02_09h43.24.388,crtt_exp,2023.2.3,,2024-02-02 09h45.50.589747 +0100
15,20,False,Yes,post,,0.9094683238878623,1,,,,,,,,,,,,,,,,,,,,,,,,,,,,,,,,,,,,,,,,,,,,,,,,,,,,,,,,,,,,,,,,,,,,,,,,,,,,
15,20,False,Yes,post,,0.8548163692463941,1,,,,,,,,,,,,,,,,,,,,,,,,,,,,,,,,,,,,,,,,,,,,,,,,,,,,,,,,,,,,,,,,,,,,,,,,,,,,
15,20,False,Yes,post,,0.7391302545634746,1,,,,,,,,,,,,,,,,,,,,,,,,,,,,,,,,,,,,,,,,,,,,,,,,,,,,,,,,,,,,,,,,,,,,,,,,,,,,
15,20,False,Yes,post,,0.8251860347571895,1,,,,,,,,,,,,,,,,,,1.503993118,1.573398959,1.573398959,2.358931209,space,0.77768614,,,,,,,,,,,,,,,,,,,,,,,,,,,,,,,,,,,,,,,,,,,,,,,1.0,/Users/peerherholz/Desktop/choice_rtt/sourcedata,2024-02-02_09h43.24.388,crtt_exp,2023.2.3,,2024-02-02 09h45.50.589747 +0100
15,20,False,Yes,post,,0.40643399719714424,1,,,,,,,,,,,,,,,,,,,,,,,,,2.358954073,2.387525391,2.387525391,2.387525391,2.387525391,2.387525391,6.300208074,space,3.893270394,,,,,,,,,,,,,,,,,,,,,,,,,,,,,,,,,,,,,1.0,/Users/peerherholz/Desktop/choice_rtt/sourcedata,2024-02-02_09h43.24.388,crtt_exp,2023.2.3,,2024-02-02 09h45.50.589747 +0100
15,20,False,Yes,post,../../stimuli/shapes/target_wombat.jpg,0.6208265162113027,1,0.0,0.0,0.0,5.0,,,,,6.436777831,,,,,,,,,,,,,,,,,,,,,,,,,,6.312988718,6.436777831,6.436777831,6.436777831,6.81336472,6.81336472,6.81336472,6.81336472,7.90518939,8.120698615,8.903930404,v,2.476969487,,8.905803863,8.933227774,8.933227774,11.87322,space,2.928320545,,,,,,,,,,,,,,,,1.0,/Users/peerherholz/Desktop/choice_rtt/sourcedata,2024-02-02_09h43.24.388,crtt_exp,2023.2.3,,2024-02-02 09h45.50.589747 +0100
15,20,False,Yes,post,../../stimuli/shapes/target_platypus.jpg,0.5458535711441466,0,0.0,1.0,1.0,1.0,,,,,11.96043231,,,,,,,,,,,,,,,,,,,,,,,,,,11.87395641,11.96043231,11.96043231,11.96043231,12.37038246,12.37038246,12.37038246,12.37038246,13.4819127,13.85452394,14.3454594,c,2.390713969,,14.34587198,14.3647866,14.3647866,15.01937966,space,0.64706643,,,,,,,,,,,,,,,,1.0,/Users/peerherholz/Desktop/choice_rtt/sourcedata,2024-02-02_09h43.24.388,crtt_exp,2023.2.3,,2024-02-02 09h45.50.589747 +0100
15,20,False,Yes,post,../../stimuli/images/target_capybara.jpg,0.3656435683799115,1,0.0,2.0,2.0,0.0,,,,,15.10624386,,,,,,,,,,,,,,,,,,,,,,,,,,15.01983065,15.10624386,15.10624386,15.10624386,15.52641633,15.52641633,15.52641633,15.52641633,16.02470174,16.22503358,16.6136009,b,1.51922085,,16.61445265,16.63569105,16.63569105,17.17920204,space,0.536596066,,,,,,,,,,,,,,,,1.0,/Users/peerherholz/Desktop/choice_rtt/sourcedata,2024-02-02_09h43.24.388,crtt_exp,2023.2.3,,2024-02-02 09h45.50.589747 +0100
15,20,False,Yes,post,../../stimuli/images/target_capybara.jpg,0.6402913396504468,1,0.0,3.0,3.0,4.0,,,,,17.25991832,,,,,,,,,,,,,,,,,,,,,,,,,,17.17989569,17.25991832,17.25991832,17.25991832,17.68259122,17.68259122,17.68259122,17.68259122,18.39161837,18.59212477,18.90670263,b,1.658665087,,18.90722807,18.92708039,18.92708039,19.43349586,space,0.494522866,,,,,,,,,,,,,,,,1.0,/Users/peerherholz/Desktop/choice_rtt/sourcedata,2024-02-02_09h43.24.388,crtt_exp,2023.2.3,,2024-02-02 09h45.50.589747 +0100
15,20,False,Yes,post,../../stimuli/shapes/target_wombat.jpg,0.9445177552398447,1,0.0,4.0,4.0,2.0,,,,,19.52874452,,,,,,,,,,,,,,,,,,,,,,,,,,19.43441002,19.52874452,19.52874452,19.52874452,19.95051536,19.95051536,19.95051536,19.95051536,21.24531892,21.4501093,21.70213788,c,2.179642226,,21.70255837,21.72277987,21.72277987,22.62900685,space,0.904877959,,,,,,,,,,,,,,,,1.0,/Users/peerherholz/Desktop/choice_rtt/sourcedata,2024-02-02_09h43.24.388,crtt_exp,2023.2.3,,2024-02-02 09h45.50.589747 +0100
15,20,False,Yes,post,../../stimuli/shapes/target_wombat.jpg,0.3280413833354861,1,0.0,5.0,5.0,3.0,,,,,22.71654477,,,,,,,,,,,,,,,,,,,,,,,,,,22.62956251,22.71654477,22.71654477,22.71654477,23.14035188,23.14035188,23.14035188,23.14035188,24.04254788,24.25505868,24.67228378,c,1.966883874,,24.6729524,24.69517958,24.69517958,25.07985916,space,0.373349936,,,,,,,,,,,,,,,,1.0,/Users/peerherholz/Desktop/choice_rtt/sourcedata,2024-02-02_09h43.24.388,crtt_exp,2023.2.3,,2024-02-02 09h45.50.589747 +0100
15,20,False,Yes,post,,0.5040226394456557,1,,,,,,,,,,,,,,,,,,,,,,,,,,,,,,,,,,,,,,,,,,,,,,,,,,,,,,,,25.08039455,25.09149526,25.09149526,26.01455832,space,0.904574335,,,,,,,,,1.0,/Users/peerherholz/Desktop/choice_rtt/sourcedata,2024-02-02_09h43.24.388,crtt_exp,2023.2.3,,2024-02-02 09h45.50.589747 +0100
15,20,False,Yes,post,../../stimuli/shapes/target_platypus.jpg,0.4452786553439924,1,,,,,0.0,0.0,0.0,1.0,26.10554558,,,,,,,,,,,,,,,,,,,,,,,,,,26.01918518,26.10554558,26.10554558,26.10554558,26.51396619,26.51396619,26.51396619,26.51396619,27.21471272,27.42266557,28.13322668,c,2.040336659,,,,,,,,,,,,,,,,,,,,,,,1.0,/Users/peerherholz/Desktop/choice_rtt/sourcedata,2024-02-02_09h43.24.388,crtt_exp,2023.2.3,,2024-02-02 09h45.50.589747 +0100
15,20,False,Yes,post,../../stimuli/shapes/target_wombat.jpg,0.4667026575659874,0,,,,,0.0,1.0,1.0,3.0,28.21859152,,,,,,,,,,,,,,,,,,,,,,,,,,28.13420262,28.21859152,28.21859152,28.21859152,28.62962114,28.62962114,28.62962114,28.62962114,29.94328884,30.15553225,30.71124888,c,2.492934936,,,,,,,,,,,,,,,,,,,,,,,1.0,/Users/peerherholz/Desktop/choice_rtt/sourcedata,2024-02-02_09h43.24.388,crtt_exp,2023.2.3,,2024-02-02 09h45.50.589747 +0100
15,20,False,Yes,post,../../stimuli/shapes/target_platypus.jpg,0.9359041863155626,0,,,,,0.0,2.0,2.0,0.0,30.79712242,,,,,,,,,,,,,,,,,,,,,,,,,,30.71187947,30.79712242,30.79712242,30.79712242,31.20943247,31.20943247,31.20943247,31.20943247,32.11837612,32.321689,32.87894486,b,2.094720308,,,,,,,,,,,,,,,,,,,,,,,1.0,/Users/peerherholz/Desktop/choice_rtt/sourcedata,2024-02-02_09h43.24.388,crtt_exp,2023.2.3,,2024-02-02 09h45.50.589747 +0100
15,20,False,Yes,post,../../stimuli/images/target_capybara.jpg,0.627648337964003,1,,,,,0.0,3.0,3.0,4.0,32.96083199,,,,,,,,,,,,,,,,,,,,,,,,,,32.87955423,32.96083199,32.96083199,32.96083199,33.38303011,33.38303011,33.38303011,33.38303011,34.28775555,34.4914489,34.79479665,b,1.84399356,,,,,,,,,,,,,,,,,,,,,,,1.0,/Users/peerherholz/Desktop/choice_rtt/sourcedata,2024-02-02_09h43.24.388,crtt_exp,2023.2.3,,2024-02-02 09h45.50.589747 +0100
15,20,False,Yes,post,../../stimuli/images/target_capybara.jpg,0.6264095890578731,1,,,,,0.0,4.0,4.0,5.0,34.87649157,,,,,,,,,,,,,,,,,,,,,,,,,,34.79529357,34.87649157,34.87649157,34.87649157,35.30964056,35.30964056,35.30964056,35.30964056,35.80050229,36.01533828,36.52543982,v,1.661507702,,,,,,,,,,,,,,,,,,,,,,,1.0,/Users/peerherholz/Desktop/choice_rtt/sourcedata,2024-02-02_09h43.24.388,crtt_exp,2023.2.3,,2024-02-02 09h45.50.589747 +0100
15,20,False,Yes,post,../../stimuli/shapes/target_platypus.jpg,0.8324029497186975,1,,,,,0.0,5.0,5.0,2.0,36.61186031,,,,,,,,,,,,,,,,,,,,,,,,,,36.52623339,36.61186031,36.61186031,36.61186031,37.02507089,37.02507089,37.02507089,37.02507089,38.35276883,38.57283254,39.30436838,c,2.691443036,,,,,,,,,,,,,,,,,,,,,,,1.0,/Users/peerherholz/Desktop/choice_rtt/sourcedata,2024-02-02_09h43.24.388,crtt_exp,2023.2.3,,2024-02-02 09h45.50.589747 +0100
15,20,False,Yes,post,../../stimuli/shapes/target_wombat.jpg,0.40814454280344803,1,,,,,1.0,0.0,6.0,0.0,39.39597147,,,,,,,,,,,,,,,,,,,,,,,,,,39.3049958,39.39597147,39.39597147,39.39597147,39.80680526,39.80680526,39.80680526,39.80680526,40.91691674,41.12129011,41.46421733,b,2.069672766,,,,,,,,,,,,,,,,,,,,,,,1.0,/Users/peerherholz/Desktop/choice_rtt/sourcedata,2024-02-02_09h43.24.388,crtt_exp,2023.2.3,,2024-02-02 09h45.50.589747 +0100
15,20,False,Yes,post,../../stimuli/shapes/target_platypus.jpg,0.6410857478700356,1,,,,,1.0,1.0,7.0,1.0,41.55637444,,,,,,,,,,,,,,,,,,,,,,,,,,41.46541484,41.55637444,41.55637444,41.55637444,41.98308886,41.98308886,41.98308886,41.98308886,42.66596807,42.88332552,43.68130698,c,2.136200199,,,,,,,,,,,,,,,,,,,,,,,1.0,/Users/peerherholz/Desktop/choice_rtt/sourcedata,2024-02-02_09h43.24.388,crtt_exp,2023.2.3,,2024-02-02 09h45.50.589747 +0100
15,20,False,Yes,post,../../stimuli/shapes/target_wombat.jpg,0.6009896498847418,0,,,,,1.0,2.0,8.0,5.0,43.78558448,,,,,,,,,,,,,,,,,,,,,,,,,,43.68241098,43.78558448,43.78558448,43.78558448,44.19229988,44.19229988,44.19229988,44.19229988,45.31299576,45.52630337,45.76825263,v,1.988529668,,,,,,,,,,,,,,,,,,,,,,,1.0,/Users/peerherholz/Desktop/choice_rtt/sourcedata,2024-02-02_09h43.24.388,crtt_exp,2023.2.3,,2024-02-02 09h45.50.589747 +0100
15,20,False,Yes,post,../../stimuli/images/target_capybara.jpg,0.7178374833826593,1,,,,,1.0,3.0,9.0,3.0,45.8834638,,,,,,,,,,,,,,,,,,,,,,,,,,45.76899758,45.8834638,45.8834638,45.8834638,46.27756298,46.27756298,46.27756298,46.27756298,46.7914134,47.0081428,47.48935094,c,1.618871047,,,,,,,,,,,,,,,,,,,,,,,1.0,/Users/peerherholz/Desktop/choice_rtt/sourcedata,2024-02-02_09h43.24.388,crtt_exp,2023.2.3,,2024-02-02 09h45.50.589747 +0100
15,20,False,Yes,post,../../stimuli/shapes/target_wombat.jpg,0.9996903922753069,1,,,,,1.0,4.0,10.0,4.0,47.60833845,,,,,,,,,,,,,,,,,,,,,,,,,,47.49031983,47.60833845,47.60833845,47.60833845,47.99334343,47.99334343,47.99334343,47.99334343,49.30072946,49.51473669,49.85255235,b,2.255883558,,,,,,,,,,,,,,,,,,,,,,,1.0,/Users/peerherholz/Desktop/choice_rtt/sourcedata,2024-02-02_09h43.24.388,crtt_exp,2023.2.3,,2024-02-02 09h45.50.589747 +0100
15,20,False,Yes,post,../../stimuli/shapes/target_platypus.jpg,0.838614225857433,1,,,,,1.0,5.0,11.0,2.0,49.93376565,,,,,,,,,,,,,,,,,,,,,,,,,,49.85335383,49.93376565,49.93376565,49.93376565,50.36213885,50.36213885,50.36213885,50.36213885,51.46612048,51.67664041,52.04445329,v,2.105885174,,,,,,,,,,,,,,,,,,,,,,,1.0,/Users/peerherholz/Desktop/choice_rtt/sourcedata,2024-02-02_09h43.24.388,crtt_exp,2023.2.3,,2024-02-02 09h45.50.589747 +0100
15,20,False,Yes,post,,0.578505992112199,1,,,,,,,,,,,,,,,,,,,,,,,,,,,,,,,,,,,,,,,,,,,,,,,,,,,,,,,,,,,,,,,52.0449968,52.0560685,52.0560685,53.51264815,space,1.454449523,,1.0,/Users/peerherholz/Desktop/choice_rtt/sourcedata,2024-02-02_09h43.24.388,crtt_exp,2023.2.3,,2024-02-02 09h45.50.589747 +0100
