participant_id	age	left-handed	Do you like this session?	session	stim_file	response	response_time	trial_type	trial
24	29	False	Yes	post	../../stimuli/shapes/target_cross.jpg	1	0.8047382626285102	practice	shapes
24	29	False	Yes	post	../../stimuli/shapes/target_cross.jpg	1	0.4800066457763671	practice	shapes
24	29	False	Yes	post	../../stimuli/shapes/target_plus.jpg	1	0.8035717089023742	practice	shapes
24	29	False	Yes	post	../../stimuli/shapes/target_square.jpg	1	0.3196850543945466	practice	shapes
24	29	False	Yes	post	../../stimuli/shapes/target_plus.jpg	1	0.5627249420411096	practice	shapes
24	29	False	Yes	post	../../stimuli/shapes/target_cross.jpg	1	0.7387273439796318	practice	shapes
24	29	False	Yes	post	../../stimuli/shapes/target_plus.jpg	1	0.8761025021128543	experiment	shapes
24	29	False	Yes	post	../../stimuli/shapes/target_cross.jpg	0	0.464521909168343	experiment	shapes
24	29	False	Yes	post	../../stimuli/shapes/target_plus.jpg	1	0.7565967789729123	experiment	shapes
24	29	False	Yes	post	../../stimuli/shapes/target_plus.jpg	1	0.5836379998027308	experiment	shapes
24	29	False	Yes	post	../../stimuli/shapes/target_cross.jpg	1	0.717230516834353	experiment	shapes
24	29	False	Yes	post	../../stimuli/shapes/target_plus.jpg	1	0.3752153868402357	experiment	shapes
24	29	False	Yes	post	../../stimuli/shapes/target_square.jpg	1	0.3118389599451251	experiment	shapes
24	29	False	Yes	post	../../stimuli/shapes/target_plus.jpg	1	0.9366950991662109	experiment	shapes
24	29	False	Yes	post	../../stimuli/shapes/target_plus.jpg	1	0.4887410061370279	experiment	shapes
24	29	False	Yes	post	../../stimuli/shapes/target_square.jpg	1	0.8737739019463213	experiment	shapes
24	29	False	Yes	post	../../stimuli/shapes/target_cross.jpg	1	0.99954521033054	experiment	shapes
24	29	False	Yes	post	../../stimuli/shapes/target_square.jpg	1	0.4480018805992378	experiment	shapes
24	29	False	Yes	post	../../stimuli/shapes/target_platypus.jpg	1	0.3950220971699307	practice	images
24	29	False	Yes	post	../../stimuli/shapes/target_wombat.jpg	1	0.9842067289428084	practice	images
24	29	False	Yes	post	../../stimuli/shapes/target_platypus.jpg	1	0.9750472638251906	practice	images
24	29	False	Yes	post	../../stimuli/shapes/target_platypus.jpg	1	0.4146102705154196	practice	images
24	29	False	Yes	post	../../stimuli/images/target_capybara.jpg	1	0.5095961873621746	practice	images
24	29	False	Yes	post	../../stimuli/images/target_capybara.jpg	1	0.3701084982547368	practice	images
24	29	False	Yes	post	../../stimuli/shapes/target_wombat.jpg	1	0.8711690525906446	experiment	images
24	29	False	Yes	post	../../stimuli/shapes/target_wombat.jpg	1	0.5648209250156816	experiment	images
24	29	False	Yes	post	../../stimuli/shapes/target_wombat.jpg	1	0.3618778770027308	experiment	images
24	29	False	Yes	post	../../stimuli/shapes/target_platypus.jpg	1	0.5395578673452331	experiment	images
24	29	False	Yes	post	../../stimuli/images/target_capybara.jpg	1	0.986968333968896	experiment	images
24	29	False	Yes	post	../../stimuli/images/target_capybara.jpg	0	0.740778516681442	experiment	images
24	29	False	Yes	post	../../stimuli/images/target_capybara.jpg	0	0.5913126624843104	experiment	images
24	29	False	Yes	post	../../stimuli/shapes/target_wombat.jpg	0	0.416576959448089	experiment	images
24	29	False	Yes	post	../../stimuli/images/target_capybara.jpg	1	0.9903237580985862	experiment	images
24	29	False	Yes	post	../../stimuli/images/target_capybara.jpg	1	0.8745943064841901	experiment	images
24	29	False	Yes	post	../../stimuli/images/target_capybara.jpg	1	0.4970341117156435	experiment	images
24	29	False	Yes	post	../../stimuli/shapes/target_wombat.jpg	0	0.3490480870048326	experiment	images
