participant_id	age	left-handed	Do you like this session?	session	stim_file	response	response_time	trial_type	trial
22	38	False	No	post	../../stimuli/shapes/target_square.jpg	0	0.4290109778650693	practice	shapes
22	38	False	No	post	../../stimuli/shapes/target_square.jpg	1	0.3275533158738106	practice	shapes
22	38	False	No	post	../../stimuli/shapes/target_plus.jpg	1	0.3152926983903412	practice	shapes
22	38	False	No	post	../../stimuli/shapes/target_square.jpg	0	0.8421399221838535	practice	shapes
22	38	False	No	post	../../stimuli/shapes/target_cross.jpg	1	0.394103399158685	practice	shapes
22	38	False	No	post	../../stimuli/shapes/target_square.jpg	1	0.6274044311798056	practice	shapes
22	38	False	No	post	../../stimuli/shapes/target_square.jpg	0	0.5998462603981923	experiment	shapes
22	38	False	No	post	../../stimuli/shapes/target_plus.jpg	1	0.3189746566353632	experiment	shapes
22	38	False	No	post	../../stimuli/shapes/target_cross.jpg	1	0.8484510518115362	experiment	shapes
22	38	False	No	post	../../stimuli/shapes/target_square.jpg	1	0.3073592571791574	experiment	shapes
22	38	False	No	post	../../stimuli/shapes/target_cross.jpg	1	0.8333229260642387	experiment	shapes
22	38	False	No	post	../../stimuli/shapes/target_cross.jpg	1	0.925313145651686	experiment	shapes
22	38	False	No	post	../../stimuli/shapes/target_cross.jpg	1	0.6029879447400206	experiment	shapes
22	38	False	No	post	../../stimuli/shapes/target_plus.jpg	1	0.6748797311684587	experiment	shapes
22	38	False	No	post	../../stimuli/shapes/target_square.jpg	1	0.6338883748323576	experiment	shapes
22	38	False	No	post	../../stimuli/shapes/target_plus.jpg	1	0.5724460330364072	experiment	shapes
22	38	False	No	post	../../stimuli/shapes/target_square.jpg	1	0.9211971747592522	experiment	shapes
22	38	False	No	post	../../stimuli/shapes/target_square.jpg	1	0.9257534574689934	experiment	shapes
22	38	False	No	post	../../stimuli/shapes/target_platypus.jpg	1	0.495086021149968	practice	images
22	38	False	No	post	../../stimuli/shapes/target_wombat.jpg	1	0.971210311233287	practice	images
22	38	False	No	post	../../stimuli/shapes/target_wombat.jpg	1	0.3999700131310071	practice	images
22	38	False	No	post	../../stimuli/images/target_capybara.jpg	1	0.7058807032334075	practice	images
22	38	False	No	post	../../stimuli/shapes/target_platypus.jpg	1	0.4977851872630472	practice	images
22	38	False	No	post	../../stimuli/shapes/target_wombat.jpg	1	0.4953058032434576	practice	images
22	38	False	No	post	../../stimuli/shapes/target_wombat.jpg	1	0.999155055070958	experiment	images
22	38	False	No	post	../../stimuli/images/target_capybara.jpg	1	0.3384764147878754	experiment	images
22	38	False	No	post	../../stimuli/images/target_capybara.jpg	1	0.704979272742472	experiment	images
22	38	False	No	post	../../stimuli/shapes/target_platypus.jpg	1	0.357800510624694	experiment	images
22	38	False	No	post	../../stimuli/images/target_capybara.jpg	1	0.4081645809933633	experiment	images
22	38	False	No	post	../../stimuli/shapes/target_wombat.jpg	1	0.607694059241029	experiment	images
22	38	False	No	post	../../stimuli/shapes/target_wombat.jpg	1	0.6573220919425089	experiment	images
22	38	False	No	post	../../stimuli/shapes/target_wombat.jpg	1	0.4811546858551667	experiment	images
22	38	False	No	post	../../stimuli/shapes/target_wombat.jpg	1	0.5215199916120913	experiment	images
22	38	False	No	post	../../stimuli/shapes/target_platypus.jpg	1	0.3608769141791531	experiment	images
22	38	False	No	post	../../stimuli/shapes/target_platypus.jpg	1	0.5122538486909753	experiment	images
22	38	False	No	post	../../stimuli/images/target_capybara.jpg	1	0.9765909075663808	experiment	images
