participant_id	age	left-handed	Do you like this session?	session	stim_file	response	response_time	trial_type	trial
16	39	False	No	post	../../stimuli/shapes/target_plus.jpg	0	0.8415004712115042	practice	shapes
16	39	False	No	post	../../stimuli/shapes/target_cross.jpg	1	0.3308282655719251	practice	shapes
16	39	False	No	post	../../stimuli/shapes/target_cross.jpg	1	0.7853346076142946	practice	shapes
16	39	False	No	post	../../stimuli/shapes/target_plus.jpg	1	0.7537651281674678	practice	shapes
16	39	False	No	post	../../stimuli/shapes/target_square.jpg	1	0.4620360671390917	practice	shapes
16	39	False	No	post	../../stimuli/shapes/target_plus.jpg	1	0.7769471092689442	practice	shapes
16	39	False	No	post	../../stimuli/shapes/target_cross.jpg	1	0.3327500914802379	experiment	shapes
16	39	False	No	post	../../stimuli/shapes/target_square.jpg	1	0.5237564387044438	experiment	shapes
16	39	False	No	post	../../stimuli/shapes/target_plus.jpg	1	0.6067237016664486	experiment	shapes
16	39	False	No	post	../../stimuli/shapes/target_square.jpg	1	0.9294822512472828	experiment	shapes
16	39	False	No	post	../../stimuli/shapes/target_square.jpg	1	0.9735830126264096	experiment	shapes
16	39	False	No	post	../../stimuli/shapes/target_plus.jpg	1	0.6108806725474325	experiment	shapes
16	39	False	No	post	../../stimuli/shapes/target_square.jpg	1	0.8250198884995337	experiment	shapes
16	39	False	No	post	../../stimuli/shapes/target_plus.jpg	1	0.672162716635138	experiment	shapes
16	39	False	No	post	../../stimuli/shapes/target_cross.jpg	1	0.6764480543189635	experiment	shapes
16	39	False	No	post	../../stimuli/shapes/target_square.jpg	1	0.4946696605464494	experiment	shapes
16	39	False	No	post	../../stimuli/shapes/target_cross.jpg	1	0.4518693721047156	experiment	shapes
16	39	False	No	post	../../stimuli/shapes/target_cross.jpg	1	0.5016037421468288	experiment	shapes
16	39	False	No	post	../../stimuli/images/target_capybara.jpg	1	0.7970803364360954	practice	images
16	39	False	No	post	../../stimuli/shapes/target_platypus.jpg	1	0.3670103383210781	practice	images
16	39	False	No	post	../../stimuli/images/target_capybara.jpg	1	0.5223862882830135	practice	images
16	39	False	No	post	../../stimuli/shapes/target_wombat.jpg	1	0.9780722239020498	practice	images
16	39	False	No	post	../../stimuli/shapes/target_wombat.jpg	1	0.483640076746662	practice	images
16	39	False	No	post	../../stimuli/shapes/target_platypus.jpg	1	0.5191351015442027	practice	images
16	39	False	No	post	../../stimuli/images/target_capybara.jpg	1	0.3351501021833186	experiment	images
16	39	False	No	post	../../stimuli/shapes/target_wombat.jpg	1	0.6252292181662795	experiment	images
16	39	False	No	post	../../stimuli/shapes/target_wombat.jpg	1	0.5657317351161691	experiment	images
16	39	False	No	post	../../stimuli/shapes/target_wombat.jpg	1	0.5216107319360558	experiment	images
16	39	False	No	post	../../stimuli/shapes/target_platypus.jpg	1	0.4999897158313351	experiment	images
16	39	False	No	post	../../stimuli/shapes/target_wombat.jpg	0	0.3639618734022864	experiment	images
16	39	False	No	post	../../stimuli/shapes/target_wombat.jpg	1	0.5203780805461542	experiment	images
16	39	False	No	post	../../stimuli/images/target_capybara.jpg	1	0.330136681900968	experiment	images
16	39	False	No	post	../../stimuli/images/target_capybara.jpg	1	0.8466747045511047	experiment	images
16	39	False	No	post	../../stimuli/shapes/target_wombat.jpg	1	0.5787594557706082	experiment	images
16	39	False	No	post	../../stimuli/shapes/target_wombat.jpg	1	0.6107326826239381	experiment	images
16	39	False	No	post	../../stimuli/images/target_capybara.jpg	1	0.925516210515092	experiment	images
